<?xml version="1.0" encoding="UTF-8"?>
<svg width="509px" height="299px" viewBox="0 0 509 299" version="1.1" xmlns="http://www.w3.org/2000/svg" xmlns:xlink="http://www.w3.org/1999/xlink">
    <!-- Generator: Sketch 53.2 (72643) - https://sketchapp.com -->
    <title>Collaboration</title>
    <desc>Created with Sketch.</desc>
    <defs>
        <linearGradient x1="99.3405097%" y1="50%" x2="0.824984097%" y2="50%" id="linearGradient-1">
            <stop stop-color="#FFFFFF" stop-opacity="0" offset="0%"></stop>
            <stop stop-color="#B9BDCF" offset="100%"></stop>
        </linearGradient>
        <linearGradient x1="77.9398216%" y1="51.5122873%" x2="55.0827314%" y2="47.4461496%" id="linearGradient-2">
            <stop stop-color="#5E688B" offset="0%"></stop>
            <stop stop-color="#303753" offset="100%"></stop>
        </linearGradient>
        <linearGradient x1="50%" y1="0%" x2="50%" y2="100%" id="linearGradient-3">
            <stop stop-color="#5E688B" offset="0%"></stop>
            <stop stop-color="#303753" offset="100%"></stop>
        </linearGradient>
        <linearGradient x1="50%" y1="100%" x2="50%" y2="84.3741653%" id="linearGradient-4">
            <stop stop-color="#DCDCDC" offset="0%"></stop>
            <stop stop-color="#FFFFFF" offset="100%"></stop>
        </linearGradient>
        <linearGradient x1="-37.7758789%" y1="49.9836411%" x2="50%" y2="50.0116256%" id="linearGradient-5">
            <stop stop-color="#DCDCDC" offset="0%"></stop>
            <stop stop-color="#FFFFFF" offset="100%"></stop>
        </linearGradient>
        <linearGradient x1="-3.01724138%" y1="50.2564103%" x2="96.9827586%" y2="50.2564103%" id="linearGradient-6">
            <stop stop-color="#808080" stop-opacity="0.25" offset="0%"></stop>
            <stop stop-color="#808080" stop-opacity="0.12" offset="54%"></stop>
            <stop stop-color="#808080" stop-opacity="0.1" offset="100%"></stop>
        </linearGradient>
        <linearGradient x1="82.9427083%" y1="20.3993725%" x2="50%" y2="71.9259715%" id="linearGradient-7">
            <stop stop-color="#CF9E9E" offset="0%"></stop>
            <stop stop-color="#A26565" offset="100%"></stop>
        </linearGradient>
        <linearGradient x1="67.0096628%" y1="100%" x2="67.0096628%" y2="9.47503811%" id="linearGradient-8">
            <stop stop-color="#5E688B" offset="0%"></stop>
            <stop stop-color="#303753" offset="100%"></stop>
        </linearGradient>
        <linearGradient x1="82.9427083%" y1="32.4848358%" x2="50%" y2="62.9739476%" id="linearGradient-9">
            <stop stop-color="#CF9E9E" offset="0%"></stop>
            <stop stop-color="#A26565" offset="100%"></stop>
        </linearGradient>
        <linearGradient x1="50%" y1="18.549346%" x2="79.7555302%" y2="73.0386571%" id="linearGradient-10">
            <stop stop-color="#FFB69E" offset="0%"></stop>
            <stop stop-color="#FF8065" offset="100%"></stop>
        </linearGradient>
        <linearGradient x1="69.8015755%" y1="100%" x2="30.1984245%" y2="0%" id="linearGradient-11">
            <stop stop-color="#FFEF79" offset="0%"></stop>
            <stop stop-color="#FDC815" offset="100%"></stop>
        </linearGradient>
        <linearGradient x1="55.1524882%" y1="100%" x2="44.8475118%" y2="0%" id="linearGradient-12">
            <stop stop-color="#FFEF79" offset="0%"></stop>
            <stop stop-color="#FDC815" offset="100%"></stop>
        </linearGradient>
        <linearGradient x1="58.3199654%" y1="11.4746094%" x2="50%" y2="100%" id="linearGradient-13">
            <stop stop-color="#2D3C6C" offset="0%"></stop>
            <stop stop-color="#141C3A" offset="100%"></stop>
        </linearGradient>
        <linearGradient x1="-37.7758789%" y1="39.1207709%" x2="50%" y2="57.7314014%" id="linearGradient-14">
            <stop stop-color="#DCDCDC" offset="0%"></stop>
            <stop stop-color="#FFFFFF" offset="100%"></stop>
        </linearGradient>
        <linearGradient x1="21.4923756%" y1="37.7183702%" x2="50%" y2="58.7280273%" id="linearGradient-15">
            <stop stop-color="#DCDCDC" offset="0%"></stop>
            <stop stop-color="#FFFFFF" offset="100%"></stop>
        </linearGradient>
        <linearGradient x1="-19.5568266%" y1="13.936942%" x2="50%" y2="100%" id="linearGradient-16">
            <stop stop-color="#CF9E9E" offset="0%"></stop>
            <stop stop-color="#A26565" offset="100%"></stop>
        </linearGradient>
        <linearGradient x1="-19.5568266%" y1="35.2798166%" x2="50%" y2="70.4089506%" id="linearGradient-17">
            <stop stop-color="#CF9E9E" offset="0%"></stop>
            <stop stop-color="#A26565" offset="100%"></stop>
        </linearGradient>
        <linearGradient x1="50%" y1="0%" x2="50%" y2="100%" id="linearGradient-18">
            <stop stop-color="#9B92F4" offset="0%"></stop>
            <stop stop-color="#6259E5" offset="100%"></stop>
        </linearGradient>
        <linearGradient x1="17.1235312%" y1="13.936942%" x2="50%" y2="100%" id="linearGradient-19">
            <stop stop-color="#CF9E9E" offset="0%"></stop>
            <stop stop-color="#A26565" offset="100%"></stop>
        </linearGradient>
        <linearGradient x1="16.6805498%" y1="36.8718328%" x2="50%" y2="72.5929054%" id="linearGradient-20">
            <stop stop-color="#CF9E9E" offset="0%"></stop>
            <stop stop-color="#A26565" offset="100%"></stop>
        </linearGradient>
        <linearGradient x1="41.3886794%" y1="7.06208882%" x2="54.7685065%" y2="96.0752467%" id="linearGradient-21">
            <stop stop-color="#FFEF79" offset="0%"></stop>
            <stop stop-color="#FDC815" offset="100%"></stop>
        </linearGradient>
        <linearGradient x1="50%" y1="0%" x2="50%" y2="100%" id="linearGradient-22">
            <stop stop-color="#2D3C6C" offset="0%"></stop>
            <stop stop-color="#141C3A" offset="100%"></stop>
        </linearGradient>
        <linearGradient x1="-37.7758789%" y1="39.3309926%" x2="50%" y2="57.5820058%" id="linearGradient-23">
            <stop stop-color="#DCDCDC" offset="0%"></stop>
            <stop stop-color="#FFFFFF" offset="100%"></stop>
        </linearGradient>
        <linearGradient x1="77.04232%" y1="46.7990451%" x2="50%" y2="58.7280273%" id="linearGradient-24">
            <stop stop-color="#DCDCDC" offset="0%"></stop>
            <stop stop-color="#FFFFFF" offset="100%"></stop>
        </linearGradient>
        <linearGradient x1="50%" y1="0%" x2="50%" y2="100%" id="linearGradient-25">
            <stop stop-color="#5E688B" offset="0%"></stop>
            <stop stop-color="#303753" offset="100%"></stop>
        </linearGradient>
        <linearGradient x1="59.3397487%" y1="21.7758179%" x2="50%" y2="100%" id="linearGradient-26">
            <stop stop-color="#2D3C6C" offset="0%"></stop>
            <stop stop-color="#141C3A" offset="100%"></stop>
        </linearGradient>
        <linearGradient x1="50%" y1="0%" x2="50%" y2="100%" id="linearGradient-27">
            <stop stop-color="#B6F9E2" offset="0%"></stop>
            <stop stop-color="#7FF1C0" offset="100%"></stop>
        </linearGradient>
        <linearGradient x1="50%" y1="0%" x2="50%" y2="100%" id="linearGradient-28">
            <stop stop-color="#5E688B" offset="0%"></stop>
            <stop stop-color="#303753" offset="100%"></stop>
        </linearGradient>
        <linearGradient x1="50%" y1="0%" x2="50%" y2="100%" id="linearGradient-29">
            <stop stop-color="#B6F9E2" offset="0%"></stop>
            <stop stop-color="#7FF1C0" offset="100%"></stop>
        </linearGradient>
        <linearGradient x1="50%" y1="0%" x2="50%" y2="100%" id="linearGradient-30">
            <stop stop-color="#5E688B" offset="0%"></stop>
            <stop stop-color="#303753" offset="100%"></stop>
        </linearGradient>
        <linearGradient x1="50%" y1="0%" x2="50%" y2="100%" id="linearGradient-31">
            <stop stop-color="#B6F9E2" offset="0%"></stop>
            <stop stop-color="#7FF1C0" offset="100%"></stop>
        </linearGradient>
        <linearGradient x1="50%" y1="0%" x2="50%" y2="100%" id="linearGradient-32">
            <stop stop-color="#5E688B" offset="0%"></stop>
            <stop stop-color="#303753" offset="100%"></stop>
        </linearGradient>
        <linearGradient x1="89.1900276%" y1="30.7494915%" x2="3.33984375%" y2="86.873776%" id="linearGradient-33">
            <stop stop-color="#2D3C6C" offset="0%"></stop>
            <stop stop-color="#141C3A" offset="100%"></stop>
        </linearGradient>
        <linearGradient x1="0%" y1="28.7864168%" x2="100%" y2="70.5297389%" id="linearGradient-34">
            <stop stop-color="#947AFF" offset="0%"></stop>
            <stop stop-color="#B6FFEE" offset="100%"></stop>
        </linearGradient>
        <rect id="path-35" x="120" y="26" width="35" height="39"></rect>
        <filter x="-24.3%" y="-21.8%" width="171.4%" height="164.1%" filterUnits="objectBoundingBox" id="filter-36">
            <feOffset dx="4" dy="4" in="SourceAlpha" result="shadowOffsetOuter1"></feOffset>
            <feGaussianBlur stdDeviation="3.5" in="shadowOffsetOuter1" result="shadowBlurOuter1"></feGaussianBlur>
            <feColorMatrix values="0 0 0 0 0   0 0 0 0 0   0 0 0 0 0  0 0 0 0.182999321 0" type="matrix" in="shadowBlurOuter1"></feColorMatrix>
        </filter>
        <linearGradient x1="100%" y1="17.4072266%" x2="50%" y2="100%" id="linearGradient-37">
            <stop stop-color="#FFB69E" offset="0%"></stop>
            <stop stop-color="#FF8065" offset="100%"></stop>
        </linearGradient>
        <rect id="path-38" x="147" y="19" width="56" height="36"></rect>
        <filter x="-15.2%" y="-23.6%" width="144.6%" height="169.4%" filterUnits="objectBoundingBox" id="filter-39">
            <feOffset dx="4" dy="4" in="SourceAlpha" result="shadowOffsetOuter1"></feOffset>
            <feGaussianBlur stdDeviation="3.5" in="shadowOffsetOuter1" result="shadowBlurOuter1"></feGaussianBlur>
            <feColorMatrix values="0 0 0 0 0   0 0 0 0 0   0 0 0 0 0  0 0 0 0.182999321 0" type="matrix" in="shadowBlurOuter1"></feColorMatrix>
        </filter>
        <linearGradient x1="50%" y1="0%" x2="50%" y2="100%" id="linearGradient-40">
            <stop stop-color="#F4F5F8" offset="0%"></stop>
            <stop stop-color="#E6E8EF" offset="100%"></stop>
        </linearGradient>
        <linearGradient x1="50%" y1="49.6107266%" x2="0%" y2="50.3892734%" id="linearGradient-41">
            <stop stop-color="#F4F5F8" offset="0%"></stop>
            <stop stop-color="#E6E8EF" offset="100%"></stop>
        </linearGradient>
        <linearGradient x1="50%" y1="0%" x2="50%" y2="100%" id="linearGradient-42">
            <stop stop-color="#F4F5F8" offset="0%"></stop>
            <stop stop-color="#E6E8EF" offset="100%"></stop>
        </linearGradient>
    </defs>
    <g id="Page-1" stroke="none" stroke-width="1" fill="none" fill-rule="evenodd">
        <g id="Home" transform="translate(-179.000000, -1065.000000)">
            <g id="#2" transform="translate(179.000000, 865.000000)">
                <g id="Collaboration" transform="translate(0.000000, 200.000000)">
                    <ellipse id="Oval" fill="url(#linearGradient-1)" cx="256" cy="281" rx="256" ry="18"></ellipse>
                    <rect id="Rectangle" fill="#565661" x="84" y="109" width="142" height="32"></rect>
                    <rect id="Rectangle" fill="#141C3A" x="84" y="109" width="142" height="32"></rect>
                    <polygon id="Path" fill="url(#linearGradient-2)" points="85 115 223 115.788287 223 139 85 139"></polygon>
                    <polygon id="Path" fill="url(#linearGradient-3)" points="211 142 223 143.65555 223 262 211 225.801632"></polygon>
                    <rect id="Rectangle" fill="#565661" x="232" y="117" width="56" height="23"></rect>
                    <rect id="Rectangle" fill="#565661" x="232" y="142" width="56" height="51"></rect>
                    <polygon id="Path" fill="#EFEFF0" points="81.9820706 264 87 264 85.6205899 111 78 111"></polygon>
                    <polygon id="Path" fill="url(#linearGradient-4)" points="223 110 223 263 227 263 227 111.222882"></polygon>
                    <polygon id="Path" fill="url(#linearGradient-5)" points="86 138 86 143 223 143 223 139.36612"></polygon>
                    <polygon id="Path" fill="#FFFFFF" points="95.5840141 96 267.951263 96 293 106.126428 293 112 78 109.977152 78 104"></polygon>
                    <polygon id="Path" fill="#DFE6F5" points="78 106 293 107.860625 293 113 78 111.230008"></polygon>
                    <path d="M96.9482759,164 L96.0862069,163.846154 C96.0862069,163.8 96.0862069,163.758974 96.0862069,163.717949 C96.0603448,163.476923 96.0301724,163.241026 96,163 C96.3534483,163.333333 96.6896552,163.666667 97,164 L96.9482759,164 Z" id="Path" fill="url(#linearGradient-6)"></path>
                    <path d="M75.9296755,239.890077 C76.5621926,239.743361 77.2044408,239.621098 77.8466889,239.533068 C82.2576189,238.901699 86.7560737,239.567537 90.7986931,241.450158 C90.3899897,244.472508 89.9861519,247.597559 90.8522138,250.517208 C91.4555378,252.571233 92.6670513,254.429636 92.9249237,256.57169 C94.2501756,256.800738 95.333108,257.762404 95.7225955,259.056081 C95.9092437,259.61725 96.0029353,260.20542 95.9999299,260.797111 C95.9945243,261.529172 95.9030671,262.258025 95.727461,262.968508 C95.6044654,264.148683 94.5690822,265.015939 93.3920132,264.924722 C89.6261037,265.355089 85.9331769,263.863476 82.4300052,262.401206 L75.6182825,259.554915 C74.8203378,259.222359 74.0175276,258.884912 73.2536416,258.474107 C71.8047422,257.687235 70.5183677,256.629939 69.4634044,255.358837 C69.2403474,255.131949 69.0837886,254.847678 69.0109114,254.537227 C68.884408,253.676493 69.8867044,253.162987 70.524087,252.581014 C70.710767,252.403657 70.8742612,252.203169 71.0106386,251.984368 C71.7647936,250.839983 71.8377764,249.260341 72.2902694,247.910553 C73.3606829,244.707253 76.669234,242.643448 77.8369579,239.518397 C77.9002096,239.347228 77.9585958,239.176059 78.0072509,239" id="Path" fill="url(#linearGradient-7)"></path>
                    <path d="M96,260.802159 C95.9945944,261.53334 95.903137,262.261318 95.7275304,262.970948 C95.6045345,264.149706 94.5691485,265.01592 93.3920765,264.924812 C89.6261572,265.354663 85.9332208,263.864841 82.43004,262.404327 L75.6182996,259.561455 C74.8203529,259.229298 74.0175407,258.892256 73.2536526,258.481945 C71.8047495,257.696018 70.5183716,256.639991 69.4634056,255.370416 C69.240348,255.1438 69.0837888,254.859871 69.0109115,254.549793 C68.8844077,253.690093 69.8867067,253.177203 70.5240909,252.595929 C70.7107715,252.418785 70.874266,252.218537 71.0106438,252 C72.888738,252.405427 75.2193263,253.592399 76.6546573,254.051558 C78.0923429,254.444638 79.4728213,255.024288 80.7611636,255.775843 C82.5516783,256.928623 83.8410434,258.706639 85.3590884,260.172037 C86.8771334,261.637436 88.8379415,262.970948 90.9544466,262.790216 C92.0734965,262.620876 93.1520642,262.246694 94.1365025,261.686282 L96,260.802159 Z" id="Path" fill="#000000" opacity="0.1"></path>
                    <path d="M87.1949474,189.828514 C87.4535658,190.744201 87.1244521,191.726582 86.3694664,192.292517 C85.7333605,192.691686 84.9127353,192.637478 84.2814851,193.071142 C83.499706,193.628007 83.3880233,194.73188 83.2520617,195.687914 C82.7664847,198.974894 81.1592246,201.956338 79.7850415,204.977205 C78.4108584,207.998073 77.2503293,211.294909 77.7553294,214.576962 C78.1000891,216.80442 79.1780702,219.179719 78.1680699,221.185418 C77.9204256,221.678219 77.551387,222.116811 77.2697523,222.594828 C75.8858577,224.940559 76.6724926,227.912147 76.6190791,230.642262 C76.6392746,230.945398 76.5735622,231.248068 76.429704,231.514519 C76.2174213,231.766331 75.956243,231.971001 75.6624923,232.115736 C74.6638103,232.860891 74.0542526,234.02739 74.0066745,235.284444 C73.9657576,236.525367 74.1131539,237.765294 74.4436939,238.960737 C74.4971799,239.443256 74.7072966,239.894013 75.0409536,240.242018 C75.4275325,240.501348 75.8840156,240.632236 76.3471559,240.616547 C79.397803,240.867419 82.3902394,241.605868 85.213793,242.804581 C87.0541301,243.583206 88.8410537,244.558952 90.7979292,244.93348 C91.1803647,245.054014 91.5948267,245.009456 91.9438911,244.81028 C92.1899521,244.584902 92.3598438,244.286617 92.4294681,243.957735 C93.1821126,241.444452 93.9444686,238.85232 93.6871127,236.240477 C93.57543,235.116892 93.279228,234.017946 93.2015357,232.894361 C92.8616317,228.459155 95.818796,224.457614 96.7559597,220.081545 C97.1784118,218.110342 97.1784118,216.070147 97.4794696,214.079233 C98.295239,208.62393 101.257259,203.73042 102.398365,198.334253 C102.557189,197.328322 102.804195,196.338792 103.136442,195.377449 C103.986202,193.287975 105.952789,191.59274 105.996491,189.330786 C106.023477,188.833193 105.89427,188.339734 105.627453,187.921376 C105.169679,187.411442 104.561507,187.065661 103.893943,186.935774 C101.255889,186.19924 98.5706805,185.649269 95.8576422,185.28982 C94.6142013,185.041883 93.3451211,184.952488 92.0798527,185.023708 C90.4367702,185.219772 88.8574997,185.785454 87.4571591,186.679518 C85.5828316,187.852384 86.7870627,188.13328 87.1949474,189.828514 Z" id="Path" fill="#454B69"></path>
                    <path d="M87.1949474,189.828514 C87.4535658,190.744201 87.1244521,191.726582 86.3694664,192.292517 C85.7333605,192.691686 84.9127353,192.637478 84.2814851,193.071142 C83.499706,193.628007 83.3880233,194.73188 83.2520617,195.687914 C82.7664847,198.974894 81.1592246,201.956338 79.7850415,204.977205 C78.4108584,207.998073 77.2503293,211.294909 77.7553294,214.576962 C78.1000891,216.80442 79.1780702,219.179719 78.1680699,221.185418 C77.9204256,221.678219 77.551387,222.116811 77.2697523,222.594828 C75.8858577,224.940559 76.6724926,227.912147 76.6190791,230.642262 C76.6392746,230.945398 76.5735622,231.248068 76.429704,231.514519 C76.2174213,231.766331 75.956243,231.971001 75.6624923,232.115736 C74.6638103,232.860891 74.0542526,234.02739 74.0066745,235.284444 C73.9657576,236.525367 74.1131539,237.765294 74.4436939,238.960737 C74.4971799,239.443256 74.7072966,239.894013 75.0409536,240.242018 C75.4275325,240.501348 75.8840156,240.632236 76.3471559,240.616547 C79.397803,240.867419 82.3902394,241.605868 85.213793,242.804581 C87.0541301,243.583206 88.8410537,244.558952 90.7979292,244.93348 C91.1803647,245.054014 91.5948267,245.009456 91.9438911,244.81028 C92.1899521,244.584902 92.3598438,244.286617 92.4294681,243.957735 C93.1821126,241.444452 93.9444686,238.85232 93.6871127,236.240477 C93.57543,235.116892 93.279228,234.017946 93.2015357,232.894361 C92.8616317,228.459155 95.818796,224.457614 96.7559597,220.081545 C97.1784118,218.110342 97.1784118,216.070147 97.4794696,214.079233 C98.295239,208.62393 101.257259,203.73042 102.398365,198.334253 C102.557189,197.328322 102.804195,196.338792 103.136442,195.377449 C103.986202,193.287975 105.952789,191.59274 105.996491,189.330786 C106.023477,188.833193 105.89427,188.339734 105.627453,187.921376 C105.169679,187.411442 104.561507,187.065661 103.893943,186.935774 C101.255889,186.19924 98.5706805,185.649269 95.8576422,185.28982 C94.6142013,185.041883 93.3451211,184.952488 92.0798527,185.023708 C90.4367702,185.219772 88.8574997,185.785454 87.4571591,186.679518 C85.5828316,187.852384 86.7870627,188.13328 87.1949474,189.828514 Z" id="Path" fill="#D86C55"></path>
                    <polygon id="Path" fill="#303753" points="78 265 73.2937931 265 70.2151724 208.472314 70 205.257376 74 204 74.2703448 207.417105"></polygon>
                    <polygon id="Path" fill="#000000" opacity="0.1" points="76 207.056229 72.2015504 208 72 205.124587 75.74677 204"></polygon>
                    <polygon id="Path" fill="url(#linearGradient-8)" points="132 277.455514 124.969819 278.297995 92.5820204 205.393683 83.8480074 204.759344 68.5085224 209.199713 65.5255672 296 58.4953862 296 61.2634887 206.028021 44.4300278 206.454217 14.3906193 280.62225 8 280.62225 39.5933433 193.940901 40.8125076 190.600713 87.8952331 189 99.6321876 195.526747 99.7820849 195.903386"></polygon>
                    <path d="M99,196.04405 C88.9136643,199.128666 78.4437988,202.49646 78.4437988,202.49646 C78.4437988,202.49646 68.895401,205.879425 64.8509049,202.49646 C64.3409001,202.092525 63.7709645,201.773349 63.1623776,201.550848 C63.6872059,201.931446 64.2538553,202.248782 64.8509049,202.49646 L39,194.036521 L40.2103603,190.63333 L87.1504234,189 L98.8505728,195.659737 L99,196.04405 Z" id="Path" fill="#000000" opacity="0.1"></path>
                    <path d="M52.0056482,182.155497 L71.0671173,178 C71.0671173,178 116.611957,186.310994 120,189.633443 C120,189.633443 83.5661156,196.901909 79.5421933,199.376695 C75.5182709,201.851481 51.578417,204.589335 52.0056482,182.155497 Z" id="Path" fill="#FFFFFF"></path>
                    <path d="M43.9728772,134.612921 C42.4026001,139.434466 38.1157437,143.779433 32.8971895,143.987302 C32.5174749,144.030372 32.1331053,143.963321 31.7927613,143.794643 C31.1384792,143.399185 31.1227764,142.47138 31.3897235,141.766653 C31.6566706,141.061927 32.1225195,140.42818 32.1957991,139.687964 C32.211428,139.536912 32.2008124,139.38439 32.1643935,139.236737 C32.0283029,138.63341 31.5205799,138.095993 30.9238746,138.222742 C31.7657288,137.570196 31.9582811,136.405065 31.3687865,135.530586 C31.1319,135.271524 30.9182654,134.993356 30.7302071,134.699111 C30.2957638,133.837215 30.970983,132.86885 31.2536328,131.946115 C31.8346353,129.918126 30.3585749,127.890137 30.238187,125.775958 C30.1335018,123.884858 31.1227764,122.105297 31.3687865,120.229407 C31.7613558,117.187423 30.2015472,114.272188 30.0183482,111.235275 C29.892726,109.116026 30.4318545,107.017057 31.033794,104.973858 C31.5572197,103.148667 32.1486908,101.303197 32.1853306,99.396887 C32.1853306,98.0127843 31.9393205,96.6438916 31.8712751,95.2648588 C31.7626798,94.0041922 31.9991929,92.7380776 32.5569628,91.5941982 C32.9193525,90.9216047 33.536511,90.4110318 34.2790333,90.1695358 C35.9958696,89.6118387 37.1212348,90.4788041 37.3724792,92.0555658 C37.7912197,94.7375816 37.5504439,97.4753672 38.1000409,100.167523 C38.6081918,102.685128 39.3780598,105.146463 40.3978797,107.513914 C41.3243432,109.653443 42.4497084,111.721992 43.1615673,113.93757 C43.6974957,115.763767 44.0808336,117.628777 44.3078696,119.514541 C45.00926,124.579444 45.558857,129.791377 43.9728772,134.612921 Z" id="Path" fill="#FDC815"></path>
                    <path d="M156.928632,253.814969 C155.687044,255.5322 153.757461,256.647763 151.624906,256.881247 C149.518943,257.138357 147.330489,256.619375 145.287608,257.18597 C144.645052,257.289762 144.098359,257.702809 143.831873,258.285831 C143.781307,258.672915 143.750536,259.062243 143.739677,259.452349 C143.501907,260.723617 141.798697,261.009295 140.473979,260.999772 L135.010122,260.966443 C133.874649,260.966443 132.617865,260.904546 131.802653,260.133216 C131.00095,259.26196 130.980206,257.943006 131.754129,257.047892 C131.923619,256.850851 132.131481,256.68898 132.365537,256.571762 C131.669776,256.345853 131.163013,255.754685 131.055376,255.043384 C130.956023,254.343343 130.990581,253.631261 131.157278,252.94365 C131.157278,250.953426 131.642522,247.620515 133.069142,246.06357 C134.820876,244.12572 137.858509,241.621275 140.503094,241.102294 C142.313987,240.761581 144.18233,241.282591 145.539935,242.506878 C146.791867,243.64959 147.704127,245.439839 149.421894,245.639814 C150.358417,245.754085 151.260972,245.320807 152.18779,245.163684 C154.346145,244.891076 156.446081,245.979458 157.433287,247.882387 C157.668432,248.353195 157.831921,248.855303 157.918532,249.372674 C158.174927,250.923042 157.821058,252.511072 156.928632,253.814969 L156.928632,253.814969 Z" id="Path" fill="url(#linearGradient-9)"></path>
                    <path d="M151.595832,256.747493 C149.47357,257.012952 147.268179,256.477117 145.209488,257.062112 C144.561959,257.169275 144.011035,257.595734 143.742487,258.19769 C143.691529,258.597345 143.66052,258.999316 143.649577,259.40209 C143.409967,260.714642 141.693576,261.009597 140.358605,260.999765 L134.852462,260.965354 C133.708202,260.965354 132.441691,260.901447 131.62017,260.105067 C130.812262,259.205519 130.791358,257.843732 131.57127,256.91955 C134.749772,256.78682 137.874484,256.91955 141.043206,256.260816 C142.329276,256.000273 143.595787,255.656158 144.896528,255.474269 C147.713169,255.071163 150.710741,255.415278 153.297553,254.215793 C155.454044,253.232609 156.999285,251.231828 157.913715,249 C158.177952,250.595986 157.830192,252.233323 156.940605,253.581639 C155.689407,255.354637 153.744891,256.506427 151.595832,256.747493 Z" id="Path" fill="#000000" opacity="0.1"></path>
                    <path d="M142.245474,247.094549 C140.249272,248.647416 137.908726,249.859654 135.393513,249.989894 C132.878299,250.120135 130.20838,248.988045 128.975726,246.793994 C127.174154,243.573047 128.771115,239.094779 126.565313,236.139323 C125.876623,235.212612 124.883513,234.5564 124.1549,233.659745 C123.426286,232.76309 123.007084,231.415602 123.655849,230.463845 C122.87234,230.7644 122.043917,230.002994 121.814354,229.191496 C121.584791,228.379997 121.729515,227.508388 121.589781,226.686872 C121.225474,224.507849 119.094529,223.110268 118.071476,221.176698 C117.048423,219.243129 117.188157,216.733495 117.073376,214.444269 C116.818278,208.86682 114.74987,203.526821 111.184582,199.241201 C110.505873,198.429702 109.637526,197.603176 108.579539,197.64325 C108.764188,195.809866 107.546505,194.056629 105.969506,193.134927 C104.392507,192.213225 102.516078,191.902652 100.689554,191.722319 C82.2596255,189.898953 63.0561692,196.77665 45.459655,190.990969 C40.5639714,189.383 35.8429554,186.693034 32.8486535,182.475247 C30.4923203,179.232342 29.5403671,175.171795 30.2086773,171.214457 L30.2086773,171.144327 C30.9023572,167.587761 32.7737959,166.711143 35.8728984,165.088146 C39.4505932,163.189588 43.190017,161.615444 47.046635,160.384462 C54.5323898,158.035125 62.5920524,157.188562 70.3173514,158.911743 C73.9254852,159.723241 77.4038659,161.06572 81.0169902,161.852172 C82.4392836,162.162745 83.871558,162.383152 85.3138134,162.568494 C87.5545493,162.849012 89.8052663,163.034355 92.0609737,163.294835 C99.2735977,164.128468 106.377026,165.732155 113.25065,168.078667 C115.810778,168.950277 118.370906,169.947117 120.571718,171.52503 C124.088152,174.088454 126.432571,177.961171 127.079335,182.274877 C127.288936,183.747596 127.293926,185.280426 127.613318,186.708062 C127.915975,187.90791 128.31657,189.080698 128.811039,190.214535 C133.075205,200.797211 136.559623,211.679829 139.2362,222.774649 C139.387983,223.598795 139.669296,224.39349 140.069614,225.128995 C140.708399,226.16591 141.806309,226.862195 142.450084,227.89911 C143.947235,230.343623 142.50498,233.754921 143.832454,236.299619 C144.29158,237.181247 145.055127,237.877532 145.514253,238.75916 C147.011404,241.649496 144.800611,245.105877 142.245474,247.094549 Z" id="Path" fill="url(#linearGradient-10)"></path>
                    <path d="M85.9496858,165.487668 C85.6457694,166.564411 84.8185982,167.415855 83.749518,167.752397 C82.6928841,168.074648 81.5865745,168.203639 80.4839537,168.133148 L79.4928871,168.133148 C66.4900937,167.846348 53.3485511,164.968461 40.648033,167.712838 C39.1173631,168.027697 37.6156546,168.469315 36.1585015,169.033106 C34.302009,169.763268 32.563756,170.763018 31,172 L31,171.930772 C31.6887913,168.419948 33.5470411,167.554604 36.6243028,165.952481 C40.1735573,164.094419 43.8815768,162.555446 47.704427,161.353795 C55.1374262,159.034673 63.1402888,158.198998 70.811144,159.900017 C74.3938496,160.701079 77.8477166,162.026291 81.4353776,162.802628 C82.8476474,163.109208 84.269828,163.32678 85.7019191,163.509738 C85.9796774,164.12982 86.0659376,164.818439 85.9496858,165.487668 Z" id="Path" fill="#000000" opacity="0.1"></path>
                    <path d="M84.9590297,162.458045 C84.6543307,163.510876 83.8182567,164.34397 82.7366857,164.672468 C81.6696176,164.987672 80.5517007,165.111939 79.4382067,165.039126 L78.4371508,165.039126 C65.3032981,164.759308 52.0292975,161.951477 39.2007668,164.629047 C37.6553802,164.936849 36.1387229,165.36605 34.6659838,165.912351 C32.7022391,166.667162 30.8705921,167.708548 29.2352558,169 C28.8515178,167.983649 28.4694481,166.96569 28.0890469,165.946123 C27.6285612,164.730361 29.0901027,164.460192 29.3703984,163.369866 C29.5555937,162.631725 29.2402611,161.79227 29.0800922,161.005885 C29.0390037,160.813386 29.0122407,160.618303 29.0000077,160.422126 C28.9099127,158.6805 29.5555937,157.677014 31.0371564,156.736246 C35.4317915,153.938064 40.7924456,152.017933 45.8077354,150.575422 C48.4740327,149.762951 51.2282818,149.248189 54.0163934,149.041247 C57.9605534,148.819322 61.8997082,149.523692 65.7387574,150.416215 C70.4587357,151.540312 75.1286613,153.026243 79.3130747,155.404697 C81.3652392,156.557741 83.3673509,158.005076 84.4735176,160.060292 C84.9149635,160.782549 85.0863175,161.628798 84.9590297,162.458045 L84.9590297,162.458045 Z" id="Path" fill="#A26565"></path>
                    <path d="M43.0319791,134.606748 C41.5496095,139.431463 37.5027406,143.779288 32.5763325,143.987293 C32.2178751,144.030392 31.8550233,143.963297 31.5337325,143.794508 C30.9160786,143.39879 30.9012549,142.470374 31.1532577,141.765185 C31.4052605,141.059995 31.8450302,140.425831 31.9142074,139.685128 C31.9289614,139.533977 31.9189401,139.381355 31.88456,139.233604 C34.4984717,135.448917 37.0333236,131.623643 38.0363937,127.143912 C38.2394461,126.372559 38.3014358,125.569236 38.2192192,124.774678 C38.085806,123.861482 37.6361539,123.034533 37.3890923,122.151778 C36.9542639,120.589199 37.1568544,118.935301 37.2803852,117.316916 C37.7949049,110.190597 36.6358338,103.041585 33.9005826,96.4706952 C33.2335163,94.8878232 32.4725666,93.2846581 32.2403287,91.5952467 C32.582431,90.9222108 33.1650396,90.4113021 33.865994,90.1696472 C35.486718,89.6115834 36.5490829,90.479119 36.786262,92.0569176 C37.1815605,94.7406973 36.9542639,97.4802834 37.4730932,100.17421 C37.9527967,102.69347 38.6795659,105.156424 39.642294,107.525432 C40.516892,109.666368 41.5792569,111.736277 42.2512644,113.953313 C42.7571903,115.780711 43.1190682,117.646947 43.3333942,119.533951 C44.010343,124.566672 44.5291723,129.782032 43.0319791,134.606748 Z" id="Path" fill="#000000" opacity="0.1"></path>
                    <path d="M85.9590247,163.24964 C85.6542888,164.362803 84.8181137,165.243636 83.736412,165.590957 C82.6692148,165.924224 81.5511627,166.055612 80.437534,165.978626 L79.4363571,165.978626 C75.1604444,163.084788 70.019892,161.820411 64.9192916,162.407991 C63.2873732,162.606926 61.6554549,162.994595 60.0235365,162.841568 C56.7246585,162.535513 54.0515161,160.117683 51.1130618,158.572107 C44.2727909,155.130468 36.0669953,156.264717 30.3736818,161.438818 L30.0883464,161.693863 C30.0472529,161.490334 30.0204866,161.284072 30.0082522,161.076653 C29.9181463,159.235225 30.5639054,158.174236 32.0456472,157.179559 C36.440814,154.221032 41.8021164,152.190871 46.8180128,150.665699 C49.4846326,149.806671 52.2392148,149.262411 55.0276636,149.04361 C58.9723007,148.808968 62.9119319,149.553701 66.7514454,150.497369 C71.4719946,151.685881 76.142485,153.256961 80.3274045,155.771709 C82.3647996,157.011229 84.3671534,158.541502 85.4734539,160.714489 C85.9149533,161.478133 86.0863279,162.372875 85.9590247,163.24964 L85.9590247,163.24964 Z" id="Path" fill="#000000" opacity="0.1"></path>
                    <path d="M96.0018708,113.347918 L95.9314437,113.547969 C94.8046096,116.776584 92.7320397,119.505068 91.4039852,122.650328 C89.7288256,126.634694 89.3163238,131.102518 88.9440661,135.48143 C88.6221135,139.232402 88.3051914,143.005602 88.5617474,146.767688 C89.2056526,156.036756 93.3055178,164.827923 94.4021688,173.919167 C94.6723961,176.018803 94.7415284,178.144054 94.6084197,180.259699 C94.5178705,181.598935 94.2965281,183.038197 93.4916466,184.027342 C92.6867651,185.016487 91.1222767,185.405477 90.2570291,184.455231 C90.6443783,183.638352 91.036758,182.827031 91.4291378,182.010153 C89.130195,180.037419 85.6692045,181.454453 82.9829125,180.2208 C81.8007428,179.665101 80.855007,178.664841 79.8639967,177.770165 C75.2948067,173.66631 69.4206205,171.771106 63.5701768,172.513248 C61.9302307,172.735527 60.2902846,173.157859 58.6503386,172.991149 C55.3352329,172.652172 52.6489409,170.023714 49.6960319,168.339944 C42.8226435,164.592239 34.5782579,165.825442 28.8546315,171.457418 C28.1503601,172.179828 27.2046244,173.024491 26.3393768,172.568817 C26.0049507,172.342652 25.734775,172.017244 25.5596478,171.629685 C22.2646642,165.411407 24.6893697,157.392663 28.2107263,151.335538 C31.7320828,145.278413 36.395365,139.693633 37.8441517,132.675148 C38.0533316,131.830727 38.116478,130.950303 38.0302806,130.080031 C37.8944568,129.079771 37.4366805,128.173981 37.185155,127.207064 C36.7424702,125.495509 36.9487211,123.683929 37.0744838,121.911247 C37.6022823,114.104558 36.4257089,106.271983 33.6436764,99.0719963 C32.8387949,96.9992371 31.8829981,94.8986928 31.8829981,92.6481097 C31.8829981,89.1027466 34.1819409,86.163096 36.0834735,83.3123574 C38.271745,80.0337301 40.107881,76.4050121 42.8796916,73.7098694 C45.5056175,71.1480945 49.3086826,69.5810218 52.5583917,70.8813587 C58.0803185,69.4004915 63.7639337,68.7887351 69.4407812,69.0642212 C71.4026799,69.1642471 73.4299752,69.3920839 75.1504094,70.4423561 C76.9915758,71.5537551 78.3145998,73.5320455 80.1255832,74.7156855 C81.4486071,75.5881338 82.9728515,75.9993515 84.4115772,76.610621 C88.384319,78.3246026 91.6638054,81.5645234 93.6475924,85.7352074 C95.6597962,90.0418788 96.1628471,94.9931617 96.6055319,99.8166337 C97.0280947,104.356699 97.4305355,109.074588 96.0018708,113.347918 Z" id="Path" fill="url(#linearGradient-11)"></path>
                    <path d="M88.7542417,139.621952 C89.3855944,147.944217 93.4055352,155.837395 94.4808077,164 C92.3302627,162.158924 89.33627,160.307868 88.9367421,158.16743 C88.4928223,155.852363 87.0722788,152.818828 86.8355215,150.478815 C86.5987643,148.138802 88.2215379,145.279895 86.5198452,143.673318 C85.6911948,142.889988 87.8959967,143.10952 87.0870761,142.306232 C85.2670048,140.515049 84.8181525,137.755929 84.7047063,135.196384 C84.512341,130.666038 85.0795719,126.085799 84.255854,121.630294 C83.7626097,118.881153 82.7317292,116.261735 81.9080113,113.592424 C80.9511174,110.484048 80.2605754,107.300832 79.5700335,104.112626 C78.8903926,101.278057 78.3960782,98.40128 78.0903007,95.5009788 C77.8782056,93.0062952 77.9768545,90.3619306 79.0767892,88.0867792 C80.1767239,85.8116278 82.4012556,83.965562 84.8970716,84.0004875 C93.2427645,84.1102536 91.8024913,95.5558618 93.63736,100.844591 C94.3722939,102.950104 95.3637149,104.985766 95.7632428,107.181087 C95.9089726,108.041692 95.9881317,108.912481 96,109.785537 C94.8951328,112.684359 92.8629665,115.134138 91.5608016,117.95812 C89.9182982,121.535496 89.5138379,125.546948 89.1488371,129.478569 C88.813431,132.85637 88.5026871,136.244151 88.7542417,139.621952 Z" id="Path" fill="#FF9D00" opacity="0.1"></path>
                    <path d="M96.9274606,100.242541 C97.6813173,102.346442 98.6982279,104.380559 99.1080911,106.574183 C99.7911972,110.248504 98.7340903,114.152075 99.8825997,117.711751 C100.181564,118.471571 100.431662,119.249194 100.631408,120.039998 C100.828753,121.171708 100.601161,122.328326 100.601214,123.479968 C100.6013,125.334562 101.193261,127.129357 101.719457,128.909193 C103.498914,134.957541 104.676706,141.162187 105.236171,147.435348 C105.319782,149.121037 105.589568,150.792742 106.040748,152.420851 C106.25323,152.972561 106.435633,153.535068 106.587175,154.105964 C106.723052,154.867781 106.755411,155.644025 106.683399,156.41424 C106.546924,158.857112 106.268804,161.309948 106.547149,163.742869 C106.579115,164.022271 106.159562,160.370573 106.041125,160.599662 C103.55179,165.414706 98.0999676,163.313098 96.9303483,162.829352 C93.818927,161.542491 92.7061482,160.426895 92.1293103,157.480457 C91.6789715,155.172166 90.2219002,152.140935 89.9789702,149.797755 C89.7360402,147.454574 91.3951918,144.60795 89.6498354,143.002549 C88.8049814,142.219792 91.0662702,142.434271 90.2315331,141.636558 C88.369816,139.84669 87.9093389,137.089705 87.7928686,134.52717 C87.5953671,130.005343 88.171858,125.428712 87.3318935,120.976652 C86.8258878,118.229636 85.76848,115.612218 84.9235388,112.939969 C83.9419906,109.838964 83.2336133,106.658203 82.5252355,103.467472 C81.8260388,100.6355 81.3189064,97.7608166 81.0072016,94.8624873 C80.7895587,92.3697441 80.8855535,89.722466 82.0186175,87.4491457 C83.1516815,85.1758254 85.4331107,83.3362936 87.9878008,83.3663244 C96.5118681,83.5162819 95.0453471,94.9578593 96.9274606,100.242541 Z" id="Path" fill="url(#linearGradient-12)" transform="translate(93.817206, 123.562048) rotate(4.000000) translate(-93.817206, -123.562048) "></path>
                    <path d="M71.2336903,102.100356 C71.9621518,102.952016 72.8980866,103.88654 74,103.720811 C73.8259667,103.996216 73.4633387,104.082133 73.1839386,103.914161 C72.9194316,103.739156 72.7074894,103.49571 72.57074,103.209816 L70.9939434,100.553558 C70.7864702,100.208291 69.3572102,98.1965322 69.0068109,99.3566308 C68.8684954,99.8492124 70.8786805,101.686035 71.2336903,102.100356 Z" id="Path" fill="#000000" opacity="0.1"></path>
                    <path d="M70,110 C69.9525024,109.065837 69.5683994,108.18301 68.9221267,107.522602 C68.3411437,106.982424 67.6631139,106.563379 66.9258861,106.288857 C65.113319,105.525819 62.9672395,104.911424 61,105.01052 C61.7153598,106.080756 64.0112782,106.719925 65.1616541,107.32441 C66.792159,108.186544 68.4049409,109.078408 70,110 Z" id="Path" fill="#000000" opacity="0.1"></path>
                    <path d="M79.179039,32.6177193 C83.4649027,34.4910758 87.152739,38.6124599 87.0181828,43.283362 C86.9035608,48.1890581 82.8070725,52.810004 84.2174206,57.5108797 C85.0347249,60.2384867 87.4966048,62.0668826 89.4451777,64.1400637 C96.8657023,72.0131564 96.8507516,85.7560993 89.4053092,93.6142051 C86.5547115,96.6115754 82.891793,98.744704 79.8767377,101.607193 C69.2467989,111.648383 68.7932947,129.018144 74.4845231,142.501315 C70.1239514,143.44669 65.6793785,143.948793 61.2182797,144 C59.130167,144 56.5735995,143.645311 55.816098,141.692025 C55.1183992,139.888607 56.3144542,137.450746 54.938991,136.116916 C54.2911278,135.492464 53.3193332,135.407538 52.4472097,135.262666 C46.8357183,134.353463 42.2309066,129.862403 40.1278432,124.572045 C38.0247798,119.281686 38.1344182,113.326911 39.3404403,107.761793 C40.1976131,103.740321 41.5381914,99.3142043 39.54975,95.7173599 C37.0579687,91.1913308 29.8916058,89.283005 30.0012442,84.1075456 C30.0909483,79.8662666 35.0794944,77.8030767 37.9101579,74.6508423 C43.1329314,68.8459351 40.6461337,59.8388373 40.6361666,52.0157008 C40.6361666,45.1317404 43.0382437,38.0279727 48.1513788,33.4419962 C55.7562952,26.5630313 70.4029854,28.7960722 79.179039,32.6177193 Z" id="Path" fill="url(#linearGradient-13)"></path>
                    <g id="Group" opacity="0.1" transform="translate(30.000000, 42.000000)" fill="#000000">
                        <path d="M10.4992366,47.9502451 C8.32099237,44.0290686 2.6,42.0882843 1.27022901,38.2314706 C0.604975183,39.1315515 0.231048475,40.2128764 0.198473282,41.3307843 C0.0893129771,46.46 7.21450382,48.3512745 9.70534351,52.8418137 C10.5232843,54.4315396 10.8676594,56.2218099 10.6977099,58.0007353 C11.4816794,54.5548529 12.171374,50.9604412 10.4992366,47.9502451 Z" id="Path"></path>
                        <path d="M54.7290076,8.82264706 C55.6221374,6.22338235 56.9171756,3.59936275 56.9816794,0.901078431 C56.990711,0.608737977 56.9824268,0.316120426 56.9568702,0.024754902 C55.959542,3.0052451 54.4312977,5.89661765 54.7290076,8.82264706 Z" id="Path"></path>
                        <path d="M11.3526718,22.6705392 C13.059542,17.2888235 11.5858779,10.614902 11.580916,4.64401961 C11.580916,3.92117647 11.610687,3.19338235 11.6652672,2.47053922 C11.0773671,4.77802417 10.7806677,7.14975481 10.7820611,9.53063725 C10.7919847,13.7934314 11.5412214,18.4176471 11.3526718,22.6705392 Z" id="Path"></path>
                        <path d="M60.1522901,45.8856863 C57.3141221,48.8562745 53.6671756,50.9703431 50.6652672,53.8072549 C45.3064885,58.842402 42.5526718,65.7391176 41.8629771,73.0517157 C43.1431298,67.6056373 45.7282443,62.5902941 49.871374,58.6938725 C52.8484733,55.8718137 56.520229,53.7676471 59.3583969,50.7723039 C62.7343806,47.1011649 64.6949077,42.353556 64.8908397,37.374951 C64.0339373,40.5563747 62.4067163,43.4789667 60.1522901,45.8856863 L60.1522901,45.8856863 Z" id="Path"></path>
                        <path d="M32.0881679,95.8064216 C30.0091603,95.8064216 27.4637405,95.449951 26.709542,93.5141176 C26.0148855,91.7317647 27.2057252,89.3156863 25.8362595,87.9888235 C25.1912214,87.369951 24.2187023,87.2857843 23.3553435,87.1422059 C17.7732824,86.2460784 13.1885496,81.7901961 11.0946565,76.5520588 C9.55152672,72.6803922 9.21908397,68.4572059 9.60610687,64.2884804 C9.56641221,64.4518627 9.53167939,64.6152451 9.49694656,64.7835784 C8.31603053,70.2989706 8.19198473,76.2054902 10.280916,81.4485784 C12.3698473,86.6916667 16.959542,91.142598 22.5416031,92.0387255 C23.4248092,92.1823039 24.3973282,92.2714216 25.0225191,92.8853431 C26.4068702,94.2122059 25.201145,96.6282843 25.8958015,98.4106373 C26.65,100.346471 29.1954198,100.727696 31.2744275,100.702941 C35.7160552,100.651889 40.1412175,100.154276 44.4828244,99.2176471 C43.8704619,97.7732837 43.3354831,96.2974595 42.8801527,94.7964216 C39.3167456,95.4283828 35.7071971,95.7661931 32.0881679,95.8064216 Z" id="Path"></path>
                    </g>
                    <path d="M19,109.326287 C19,109.326287 29.6443077,103.21093 43.6935957,110.810598 C57.7428837,118.410265 60.0844317,163.13253 60.0844317,163.13253 C60.0844317,163.13253 54.3379035,208.695903 76.4952383,198.558065 C76.4952383,198.558065 116.935619,186.114598 120.98465,188.855624 C120.98465,188.855624 121.457431,189.490182 117.155296,190.54279 C112.85316,191.595398 79.8852406,201.526685 79.8852406,201.526685 C79.8852406,201.526685 70.3143504,204.841644 66.260327,201.526685 C62.2063036,198.211725 50.7182397,201.952187 49.2254405,179.163079 C48.2375286,164.802125 46.4608444,150.505173 43.9032866,136.335784 L39.9541086,124.733427 L19,109.326287 Z" id="Path" fill="url(#linearGradient-14)"></path>
                    <path d="M16.1192831,178.42592 C16.1192831,178.42592 20.8368582,132.55644 13.1016444,116.00747 C6.3723102,101.585454 32.3944143,108.32981 39.1841012,110.294662 C40.2348764,110.601493 41.151363,111.240863 41.7893293,112.11215 C45.8128475,117.638298 60.2472191,139.787097 55.9923486,169.421984 C55.9923486,169.421984 54.277324,195.814864 65,200 L31.9618861,189.605931 C29.281217,188.761044 26.5603128,188.058609 23.8142617,187.449505 C20.3138008,186.673388 14.6104637,184.467841 16.1192831,178.42592 Z" id="Path" fill="url(#linearGradient-15)"></path>
                    <polygon id="Path" fill="#303753" points="250 267 254.706207 267 257.790345 210.472314 258 207.257376 254 206 253.735172 209.417105"></polygon>
                    <polygon id="Path" fill="#000000" opacity="0.1" points="253 208.056229 256.803364 209 257 206.124587 253.248383 205"></polygon>
                    <path d="M214.887459,244.215036 C214.782585,244.967627 214.581121,245.704907 214.287649,246.410116 C213.984568,247.331043 213.333988,248.110379 212.463227,248.595611 C211.878347,248.827231 211.251612,248.946118 210.618812,248.945481 C208.264558,249.079678 205.775346,249.046129 203.750988,247.895869 C202.888574,247.363065 202.097872,246.730454 201.396734,246.012318 C196.847642,241.67849 192.712432,236.962762 189.040649,231.921631 C188.425844,231.073314 187.791045,230.071629 188.065958,229.04598 C192.822406,227.780948 197.338981,225.799195 201.446718,223.17486 C202.013574,222.757859 202.648668,222.433942 203.326122,222.21631 C204.485944,221.978593 205.680089,221.936426 206.855004,222.091699 C207.989645,222.269031 208.039629,222.30258 208.474491,223.529524 C209.194263,225.604785 209.074301,227.843 209.884045,229.918261 C210.397988,231.065081 211.023912,232.162717 211.753452,233.196502 C213.84279,236.546635 215.447282,240.500655 214.887459,244.215036 Z" id="Path" fill="url(#linearGradient-16)"></path>
                    <path d="M215,244.08561 C214.894686,244.858556 214.69238,245.615779 214.397679,246.340063 C214.093329,247.2859 213.440026,248.086316 212.565621,248.584672 C211.978292,248.822558 211.348935,248.94466 210.713486,248.944007 C208.349377,249.081834 205.849747,249.047377 203.816915,247.866004 C202.950892,247.318788 202.15688,246.669065 201.452807,245.931505 C196.884674,241.480453 192.732157,236.637171 189.045004,231.459684 C188.427626,230.588421 187.79017,229.559642 188.066234,228.506251 C189.624422,228.082758 191.15907,227.579994 192.663947,227 L192.739237,227.054146 C194.280174,228.132149 195.399486,229.677779 196.488682,231.193875 L200.002219,236.042427 C200.628521,236.994738 201.368225,237.870525 202.205708,238.651293 C203.244094,239.46855 204.390556,240.144134 205.613838,240.659627 C207.265201,241.442287 208.916563,242.224947 210.633176,242.855012 C211.74245,243.293105 213.619682,243.465389 215,244.08561 Z" id="Path" fill="#000000" opacity="0.1"></path>
                    <path d="M217.560189,192.354657 C217.216952,193.178774 216.800226,193.970592 216.315013,194.720606 C211.685682,202.461999 208.114536,210.784044 205.696151,219.466347 C205.008814,219.312585 204.620319,220.245076 204.6253,220.954365 C204.630281,221.663654 204.6253,222.556464 203.967847,222.814388 C203.773599,222.888788 203.554448,222.888788 203.365182,222.973109 C202.946802,223.161592 202.827265,223.692318 202.767497,224.148644 L202.179774,228.444056 C201.975565,229.932074 201.79626,231.544094 202.528423,232.85851 C203.033533,233.639753 203.688571,234.313989 204.455956,234.842534 L214.178291,242.481026 C214.576747,242.79351 215.069837,243.125834 215.547985,242.952232 C216.638759,242.555427 215.672502,240.611084 216.544126,239.822434 C217.121887,239.281788 218.038337,239.688513 218.840231,239.624032 C219.886178,239.544671 220.678111,238.587379 220.942088,237.580487 C221.127388,236.555106 221.145886,235.50672 220.996876,234.475489 C220.93115,234.004945 220.985977,233.525491 221.156258,233.081712 C221.453373,232.611493 221.862209,232.221386 222.346647,231.945858 C225.771959,229.454697 227.733073,225.433516 227.581367,221.212288 C227.502262,220.579423 227.525806,219.93801 227.651097,219.312585 C227.853654,218.739999 228.15913,218.208891 228.552604,217.745206 C232.083924,212.988508 235.02752,207.825085 237.951194,202.671583 C239.634672,199.695547 241.348034,196.67487 241.935757,193.321869 C242.039068,193.068947 242.016852,192.782357 241.875786,192.548221 C241.73472,192.314086 241.491248,192.159699 241.218536,192.131455 C239.760028,191.67802 238.272379,191.323392 236.765786,191.070002 C232.188519,190.147431 227.770634,188.723893 223.317884,187.354917 C218.865134,185.98594 218.899999,188.773494 217.560189,192.354657 Z" id="Path" fill="#4D47AE"></path>
                    <polygon id="Path" fill="url(#linearGradient-8)" points="196 279.455514 203.035177 280.297995 235.41798 207.393683 244.151993 206.759344 259.496474 211.199713 262.474433 298 269.504614 298 266.736511 208.028021 283.569972 208.454217 313.609381 282.62225 320 282.62225 288.406657 195.940901 287.192489 192.600713 240.104767 191 228.367812 197.526747 228.217915 197.903386"></polygon>
                    <path d="M229,198.04405 C239.086336,201.128666 249.556201,204.49646 249.556201,204.49646 C249.556201,204.49646 259.104599,207.879425 263.149095,204.49646 C263.6591,204.092525 264.229035,203.773349 264.837622,203.550848 C264.312794,203.931446 263.746145,204.248782 263.149095,204.49646 L289,196.036521 L287.804582,192.63333 L240.864519,191 L229.16437,197.659737 L229,198.04405 Z" id="Path" fill="#000000" opacity="0.1"></path>
                    <path d="M275.994352,182.155497 L256.932883,178 C256.932883,178 211.388043,186.310994 208,189.633443 C208,189.633443 244.433884,196.901909 248.457807,199.376695 C252.481729,201.851481 276.421583,204.589335 275.994352,182.155497 Z" id="Path" fill="#FFFFFF"></path>
                    <path d="M204.502783,250.172711 C203.353356,252.349755 200.522083,252.963285 198.034146,252.99792 C194.579921,253.040433 191.14894,252.430972 187.923169,251.201859 C186.082095,250.499268 184.315659,249.593815 182.414875,249.079242 C179.583603,248.307381 176.443826,248.371702 173.955888,246.823033 C172.636423,245.948317 171.546284,244.772719 170.776304,243.394189 C170.632004,243.151746 170.49268,242.899407 170.363307,242.64212 C169.174073,240.341381 168.621751,237.664607 169.283542,235.180798 C169.945333,232.69699 172.348681,229.960842 175.135171,230.000424 C178.444127,230.049903 182.389996,231.608468 185.584507,232.414964 C189.565207,233.404529 193.545907,234.547477 197.06385,236.640407 C200.009568,238.401833 202.61195,240.930172 204.000219,244.017616 C204.267086,244.613178 204.486694,245.228586 204.657035,245.858207 C205.089936,247.283181 205.189454,248.871433 204.502783,250.172711 Z" id="Path" fill="url(#linearGradient-17)"></path>
                    <path d="M204.494865,249.997438 C203.333473,252.309444 200.472727,252.961009 197.95889,252.997791 C194.468707,253.04294 191.00201,252.395696 187.742658,251.090386 C185.882419,250.344239 184.097595,249.382655 182.177024,248.836181 C179.316278,248.016469 176.143817,248.084779 173.62998,246.440102 C172.296779,245.511159 171.195292,244.262682 170.417297,242.798693 C170.271494,242.54122 170.13072,242.273237 170,242 C170.502767,242.042036 170.965313,242.094582 171.216697,242.120855 C174.303688,242.430874 177.249905,243.607895 180.196121,244.495915 C184.286303,245.730686 188.509613,246.419254 192.765304,246.545193 C195.781908,246.634521 198.929231,246.40332 201.563732,244.863734 C202.350423,244.345051 203.166394,243.876541 204.007181,243.460767 C204.276825,244.093251 204.49872,244.74681 204.670834,245.415463 C205.088131,246.928776 205.188684,248.615489 204.494865,249.997438 Z" id="Path" fill="#000000" opacity="0.1"></path>
                    <path d="M227.408261,155.929097 C220.970157,154.864211 214.413196,154.604239 207.88595,154.344266 L199.902701,154.024301 C199.334899,153.957869 198.759584,154.028111 198.223842,154.229279 C197.762154,154.528871 197.323455,154.863112 196.911459,155.229172 C196.109172,155.779113 195.084028,155.839106 194.118312,155.8941 C187.267697,156.275105 180.454411,157.167447 173.734286,158.563815 C170.267614,159.278738 166.667229,160.213638 164.062273,162.628379 C161.308745,165.183106 160.100363,169.077689 160.006267,172.847285 C159.912172,176.616882 160.892745,180.321485 161.927794,183.941097 C163.245438,188.298355 163.97343,192.815461 164.091987,197.36966 C164.045461,198.633042 164.09347,199.898168 164.235606,201.154254 C164.466108,202.35339 164.816209,203.525903 165.28056,204.65388 L168.925517,214.477828 C169.247422,215.337736 169.564375,216.192644 169.915995,217.032554 C170.267614,217.872464 170.604377,218.532394 170.906472,219.322309 C171.352187,220.402194 171.703807,221.522074 172.055426,222.636954 L174.482096,230.331131 L174.799049,231.331023 C175.675621,234.100727 176.572004,236.920425 178.226101,239.30017 C179.880198,241.679915 182.440583,243.59971 185.31792,243.744694 C186.246301,243.709579 187.175958,243.734628 188.101162,243.819686 C188.889785,244.014035 189.655258,244.293968 190.384212,244.654597 C192.544813,245.560699 194.864101,246.018084 197.20365,245.999453 C199.357938,245.999453 201.749942,245.394518 202.918705,243.564714 C203.562515,242.564821 203.730897,241.334952 203.909182,240.155079 C204.221183,237.785332 204.523279,235.310597 203.725944,233.060838 C203.230705,231.715982 202.398704,230.561106 201.824227,229.236248 C201.021941,227.431441 200.759464,225.436655 200.239463,223.531858 C199.114099,219.432016 196.824365,215.754471 193.652788,212.952991 C192.526409,208.450891 191.69917,203.877868 191.176594,199.264457 C191.104003,198.24291 190.902631,197.234882 190.577355,196.264778 C189.997926,194.764939 188.82421,193.550069 188.333924,192.020232 C187.873352,190.600384 188.012019,188.96056 187.175065,187.735691 C194.143074,189.670484 201.04175,189.235531 208.277188,189.120543 C210.594164,189.127983 212.909477,188.994422 215.210531,188.720586 C216.283252,188.522023 217.369225,188.405041 218.459297,188.370623 C220.697776,188.370623 222.797588,189.370516 224.852829,190.250422 C230.66198,192.750154 236.783131,194.714944 243.092472,194.984915 C249.604862,195.259886 256.042965,193.715051 262.406783,192.185215 C265.204882,191.510287 268.111934,190.780365 270.330603,188.925564 C272.549273,187.070762 273.797275,183.72612 272.430416,181.181393 C271.390414,179.266598 269.236126,178.326699 267.225456,177.526784 C261.658973,175.307022 256.062775,173.142254 250.699339,170.457541 C242.50809,166.427973 236.381987,157.428936 227.408261,155.929097 Z" id="Path" fill="url(#linearGradient-18)"></path>
                    <path d="M215.684769,133.753315 C214.928181,135.438593 213.655956,136.816557 212.716245,138.402701 C211.144243,141.013647 210.625506,144.152736 211.270535,147.151279 C211.9572,150.155349 213.959779,152.661882 216.691947,153.937004 C217.895371,154.430113 219.1611,154.743902 220.450793,154.868864 C222.147093,155.082002 223.95423,155.126612 225.452949,154.283973 C226.574613,153.59161 227.494962,152.602173 228.117875,151.419 C229.414195,149.188484 230.151507,146.675436 230.826171,144.172302 C232.074301,139.552656 233.139307,134.814049 232.985098,130.020919 C232.932089,128.370337 232.614033,126.511574 231.28398,125.559887 C230.597449,125.152083 229.835999,124.895516 229.047948,124.806468 L222.691643,123.636687 C221.46279,123.408679 219.31832,122.481775 218.253314,123.393809 C217.188307,124.305842 217.106384,127.002287 216.923261,128.266246 C216.634119,130.134923 216.455814,132.033339 215.684769,133.753315 Z" id="Path" fill="url(#linearGradient-19)"></path>
                    <path d="M295.420043,114.432565 L293.603105,128.302528 C293.226943,130.776348 293.010644,133.268151 292.955327,135.765067 C292.955327,137.1559 293.002725,138.700205 291.991559,139.740932 C291.496959,140.214499 290.870994,140.557517 290.179887,140.733699 C287.973229,141.357176 285.566444,140.800842 283.459848,139.942363 C282.22749,139.462765 280.968799,138.767348 280.410552,137.649886 C280.086185,136.875191 279.951386,136.045363 280.015565,135.218326 C280.015565,126.945267 280.874003,118.317306 285.619109,111.26722 C286.023902,110.575436 286.594496,109.975499 287.288585,109.511893 C288.605207,108.744537 290.327349,108.960356 291.817765,109.377606 C292.734134,109.631793 295.209384,109.914755 295.793964,110.658131 C296.378544,111.401508 295.546439,113.478165 295.420043,114.432565 Z" id="Path" fill="#A1616A"></path>
                    <path d="M244.325357,66.1913183 C236.616846,63.6542659 231,55.8103033 231,46.527027 C231,35.190263 239.376608,26 249.709677,26 C260.042747,26 268.419355,35.190263 268.419355,46.527027 C268.419355,51.5696033 266.762078,56.1875035 264.012508,59.7608659 C264.148748,60.7371838 264.351328,61.7038236 264.619209,62.6538306 C265.672157,65.9425091 267.965993,68.6754737 271,70.2561517 C261.855533,71.9996173 252.68773,73.5809001 243.496591,75 C244.165549,73.751131 244.546795,72.3649451 244.61173,70.9454288 C244.750873,69.2516367 244.638943,67.6781949 244.325357,66.1913183 Z" id="Combined-Shape" fill="url(#linearGradient-20)"></path>
                    <path d="M250.548056,68.4792177 C248.143424,68.8327371 245.622357,69.2310687 243.703713,70.6949376 C242.973429,71.3118602 242.278798,71.9684732 241.623074,72.6617003 C237.811099,76.301456 232.429786,77.7653249 227.802767,80.3345643 C227.048125,80.7014559 226.379247,81.2186045 225.838563,81.8532038 C225.332324,82.5453051 225.074143,83.4266139 224.542593,84.1137361 C223.924982,84.9103994 222.947942,85.408314 222.467015,86.2896229 C221.986089,87.1709317 222.092399,88.1070111 222.041775,89.0430906 C221.92534,91.0994779 221.135609,93.0513031 220.52306,95.0180658 C217.713437,104.433631 219.252402,114.93465 215,123.827404 C215.395129,124.862584 216.203593,125.693736 217.237573,126.12777 C218.307613,126.506918 219.424565,126.743047 220.558497,126.829829 L229.979592,127.980012 C231.326186,128.144324 232.753778,128.298678 233.983937,127.745992 C232.858632,130.797244 232.062832,133.956473 231.60968,137.171516 C231.380674,139.13679 231.025599,141.085862 230.546579,143.007075 C229.250609,147.388723 225.990434,151.038437 222.127836,153.532989 C221.641331,153.783639 221.230895,154.156405 220.938176,154.613464 C220.431937,155.609293 221.18117,156.724622 221.71272,157.700535 C223.256747,160.528689 223.044127,163.924467 223.023878,167.131037 C223.003628,170.337607 223.332683,173.857863 225.610755,176.158229 C226.957349,177.517536 228.800057,178.254449 230.592141,178.956509 L245.328739,184.747256 C247.760693,185.765767 250.268963,186.598098 252.831191,187.236828 C256.714039,188.108179 260.748758,188.073325 264.732854,187.904034 C267.365293,187.794493 269.994358,187.628521 272.620047,187.406119 C273.664549,187.402686 274.690869,187.137043 275.601791,186.634352 C276.385917,186.02573 276.989165,185.220867 277.348313,184.304112 C279.398578,179.917484 280.087062,174.798922 283.266239,171.124312 C285.448126,168.599885 288.834861,166.583331 289.082918,163.282157 C289.199352,161.639039 288.455182,160.040733 288.445057,158.392636 C288.445057,156.366123 289.523345,154.439194 289.457534,152.417661 C289.32085,149.126445 286.166985,146.616956 285.665809,143.360594 C284.390088,135.10517 288.652615,126.859704 291.269867,118.917966 C291.740669,117.49891 292.348155,115.930479 293.735248,115.323023 C295.122341,114.715567 297.076421,115.034233 297.572534,113.689863 C298.822943,110.314002 299.121624,106.355581 298.959628,102.765617 C298.868505,100.689313 298.119272,98.6578215 298.205332,96.5765385 C298.266081,95.1126695 298.741945,93.6886338 298.868505,92.229744 C299.060875,90.0239823 298.468576,87.8331581 297.856028,85.7020836 C297.679027,84.9412538 297.414059,84.202853 297.066296,83.5013011 C296.692299,82.8649273 296.25112,82.2691149 295.750076,81.723746 L293.284696,78.8408205 C292.130472,77.4914719 290.910438,76.0923319 289.234789,75.4101889 C288.693114,74.0907152 286.961779,73.1795315 285.721495,72.4525762 C284.471327,71.7548028 283.179795,71.1312935 281.853834,70.5853964 L267.912031,64.5307549 C267.390886,64.2726762 266.832605,64.09468 266.256631,64.0029654 C265.408007,63.9749623 264.564757,64.1456177 263.796313,64.50088 C259.543911,66.1589357 255.104201,67.8120121 250.548056,68.4792177 Z" id="Path" fill="url(#linearGradient-21)"></path>
                    <path d="M235.732287,49.2973737 C235.191897,47.3411539 233.810333,45.6524065 233.601314,43.6280075 C233.412687,41.8291244 234.182488,40.0879314 234.620918,38.3362493 C235.059348,36.5845672 235.044054,34.4447879 233.693078,33.2804962 C233.468765,33.081203 233.183276,32.9028881 233.101708,32.6091929 C232.938571,32.0847372 233.453471,31.6074825 233.61151,31.0777822 C233.902097,30.0288708 232.642886,28.8698236 233.101708,27.8628687 C233.361707,27.3121902 234.014254,27.1181416 234.585232,26.9450712 C236.767185,26.2790124 238.979726,24.8000473 239.453842,22.5081758 C241.161679,23.2424138 242.981673,21.8630953 244.291864,20.5257332 C245.602056,19.1883711 247.21303,17.662205 249.01773,18.0660359 L248.614986,18.9104096 C251.397713,17.8711069 254.441237,17.8359686 257.245936,18.810763 L256.389468,18.810763 C258.849597,18.8536262 261.235606,19.6840446 263.215719,21.1865474 C262.996504,21.1865474 262.976112,21.5221991 263.062778,21.7110031 C263.776501,23.4259733 265.611789,24.3332817 267.380802,24.7580908 C268.446288,25.0203187 269.603539,25.2091228 270.383536,25.9958063 C271.163534,26.7824899 271.178828,28.4240363 270.149027,28.8016444 C272.249083,29.6427664 274.237693,30.7528745 276.06783,32.1057154 C276.577632,32.4885681 277.153708,33.0077792 277.087434,33.6790825 C277.014499,34.0161238 276.908601,34.344708 276.771357,34.6598147 C276.669577,35.2196125 276.706394,35.79676 276.878415,36.338073 L277.444296,38.7400802 C278.066254,41.4095598 278.555664,44.6244733 276.664298,46.5597149 C278.117993,49.3540989 277.618673,52.7984778 275.435675,55.0349193 C275.739084,55.9826819 275.633983,57.0186893 275.146886,57.8815799 C274.659789,58.7444705 273.837209,59.3518474 272.886665,59.550483 C273.513721,60.5574379 272.937645,61.9944466 271.948629,62.6237935 C270.959613,63.2531403 269.715696,63.2583849 268.563543,63.1482492 C267.41139,63.0381135 266.243943,62.7706411 265.09179,62.948956 C263.414542,63.2164284 261.772979,64.3912092 260.156906,63.8667535 C259.554527,63.6017808 258.976184,63.2823592 258.428677,62.9122441 C257.296916,62.2881418 255.981627,62.1465388 254.727514,61.8633327 C252.589528,61.3906696 250.559522,60.5004926 248.747535,59.2410541 C247.54642,58.4982977 246.58929,57.4022216 245.999701,56.0943198 C244.878137,53.178346 246.764405,49.3550639 244.781274,46.9792795 C243.618925,45.5947164 241.31462,45.5737382 240.014625,46.7590081 C239.367176,47.351643 239.280509,48.5998476 238.607571,49.045635 C237.668848,49.2899688 236.697645,49.3750001 235.732287,49.2973737 L235.732287,49.2973737 Z" id="Path" fill="url(#linearGradient-22)"></path>
                    <path d="M310,109.326287 C310,109.326287 299.349888,103.21093 285.292938,110.810598 C271.235989,118.410265 268.893164,163.13253 268.893164,163.13253 C268.893164,163.13253 274.642826,208.695903 252.473408,198.558065 C252.473408,198.558065 212.010973,186.114598 207.959734,188.855624 C207.959734,188.855624 204.123296,188.855624 211.791177,190.54279 C219.459058,192.229956 249.081557,201.526685 249.081557,201.526685 C249.081557,201.526685 260.018646,204.841644 264.07488,201.526685 C268.131114,198.211725 278.264463,201.952187 279.758077,179.163079 C280.746527,164.802125 282.52418,150.505173 285.083133,136.335784 L289.034464,124.733427 L310,109.326287 Z" id="Path" fill="url(#linearGradient-23)"></path>
                    <path d="M311.880717,180.42592 C311.880717,180.42592 307.163142,134.55644 314.898356,118.00747 C321.62769,103.585454 295.605586,110.32981 288.815899,112.294662 C287.765124,112.601493 286.848637,113.240863 286.210671,114.11215 C282.187152,119.638298 267.752781,141.787097 272.007651,171.421984 C272.007651,171.421984 273.722676,197.814864 263,202 L296.038114,191.605931 C298.718783,190.761044 301.439687,190.058609 304.185738,189.449505 C307.686199,188.673388 313.389536,186.467841 311.880717,180.42592 Z" id="Path" fill="url(#linearGradient-24)"></path>
                    <rect id="Rectangle" fill="url(#linearGradient-25)" x="396" y="114" width="3" height="70"></rect>
                    <path d="M419.990535,184.771539 L419.793527,187.939283 L419.510643,192.421939 L419.394458,194.284732 L419.116625,198.767388 L418.995389,200.630181 L418.712505,205.112837 L415.519957,255.951141 C415.216674,260.479252 411.403521,263.999371 406.801067,264 L390.196784,264 C385.585284,263.998038 381.770878,260.459589 381.487997,255.921257 L378.285346,205.077972 L378.007514,200.595316 L377.891329,198.732523 L377.603393,194.249867 L377.487209,192.387074 L377.209376,187.904417 L377.007316,184.736674 C376.936665,183.509607 377.380091,182.307759 378.233866,181.412273 C379.08764,180.516788 380.276868,180.006218 381.523358,180 L415.479545,180 C416.731683,180.007035 417.925444,180.522954 418.779235,181.426059 C419.633027,182.329164 420.07125,183.53949 419.990535,184.771539 Z" id="Path" fill="url(#linearGradient-26)"></path>
                    <path d="M371.183894,140.71775 C389.409376,153.698516 397,174 397,174 C397,174 375.041588,173.258102 356.811115,160.277336 C338.580643,147.296571 331,127 331,127 C331,127 352.963403,127.741898 371.183894,140.71775 Z" id="Path" fill="url(#linearGradient-27)"></path>
                    <path d="M331,127 C331,127 353.791834,139.455049 361.107977,149.767928 C368.424121,160.080807 397,174 397,174" id="Path" stroke="url(#linearGradient-28)" stroke-width="2"></path>
                    <path d="M382.906298,113.589783 C392.855971,120.765124 397,132 397,132 C397,132 384.988322,131.585558 375.063673,124.410217 C365.139024,117.234876 361,106 361,106 C361,106 372.961629,106.409449 382.906298,113.589783 Z" id="Path" fill="url(#linearGradient-29)"></path>
                    <path d="M361,106 C361,106 373.433454,112.890724 377.419561,118.593048 C381.405668,124.295372 397,132 397,132" id="Path" stroke="url(#linearGradient-30)" stroke-width="2"></path>
                    <path d="M411.054198,131.703345 C399.45415,144.402949 397,161 397,161 C397,161 413.355916,157.00132 424.945802,144.296655 C436.535688,131.591989 439,115 439,115 C439,115 422.654246,119.003741 411.054198,131.703345 Z" id="Path" fill="url(#linearGradient-31)"></path>
                    <path d="M439,115 C439,115 423.892598,128.019919 420.05225,136.990096 C416.211901,145.960273 397,161 397,161" id="Path" stroke="url(#linearGradient-32)" stroke-width="2"></path>
                    <path d="M181,101.936815 L181,103 L147,103 L147,102.137328 C147.932192,101.813114 148.814685,101.37731 149.625055,100.840989 C152.554422,98.8960615 154.29211,95.7602673 154.291821,92.4194451 C154.292391,91.559055 154.175806,90.7020407 153.944831,89.868734 C153.112017,86.8312271 150.841851,84.3061894 147.769413,83 L180.768673,83 C177.696235,84.3061894 175.42607,86.8312271 174.593255,89.868734 C174.363976,90.7022415 174.249081,91.5592527 174.251294,92.4194451 C174.24901,95.7596086 175.984917,98.8955693 178.913031,100.840989 C179.5656,101.272708 180.265059,101.63998 181,101.936815 L181,101.936815 Z" id="Path" fill="#DFE6F5"></path>
                    <path d="M181,81 C178.020599,82.521316 175.819177,85.4622222 175.011582,89 L154.988418,89 C154.180823,85.4622222 151.979401,82.521316 149,81 L181,81 Z" id="Path" fill="#000000" opacity="0.1"></path>
                    <path d="M109,76 L109,82.5025321 C109,86.0880405 111.589067,89 114.787914,89 L214.207088,89 C217.405935,89 220,86.0880405 220,82.5025321 L220,76 L109,76 Z" id="Path" fill="#DFE6F5"></path>
                    <path d="M181,101.522678 L181,103 L147,103 L147,101.801296 C147.932192,101.350793 148.814685,100.745232 149.625055,100 L178.913031,100 C179.5656,100.599885 180.265059,101.110219 181,101.522678 Z" id="Path" fill="#000000" opacity="0.1"></path>
                    <rect id="Rectangle" fill="#DFE6F5" x="137" y="100" width="56" height="4" rx="2"></rect>
                    <path d="M220,5.76343034 C220.000001,4.23401143 219.389518,2.76730616 218.302992,1.68631053 C217.216467,0.605314892 215.743004,-0.0013185859 214.207088,2.15582205e-06 L114.787916,2.15582205e-06 C113.252459,-0.00131990381 111.779509,0.605472122 110.693777,1.68661129 C109.608044,2.76775046 108.998674,4.23446924 109.000002,5.76343034 L109,77 L220,77 L220,5.76343034 Z" id="Path" fill="url(#linearGradient-33)"></path>
                    <path d="M215.999996,69.1961908 C216.001298,69.9393553 215.70727,70.6525283 215.182731,71.1784862 C214.658192,71.704444 213.946211,72.0000011 213.20375,72 L115.796279,72 C115.053818,72.0000011 114.341838,71.704444 113.817298,71.1784862 C113.292759,70.6525283 112.998731,69.9393553 113.000033,69.1961908 L113.000033,8.79889944 C112.997615,8.30751029 113.126326,7.82438716 113.372866,7.39945001 C113.872688,6.53291212 114.796636,5.99935905 115.796279,6.00000058 L213.20375,6.00000058 C214.748074,6.00000058 215.999996,7.25311028 215.999996,8.79889944 L215.999996,69.1961908 Z" id="Path" fill="url(#linearGradient-34)"></path>
                    <path d="M216,11 L113,11 C113,10.9957784 113,10.1923815 113,8.58980939 C113,7.15949716 114.252042,6 115.796513,6 L213.203487,6 C214.747958,6 216,7.15949716 216,8.58980939 C216,9.97968255 216,10.7830794 216,11 Z" id="Path" fill="#FFFFFF"></path>
                    <circle id="Oval" fill="#FF8065" cx="117.5" cy="8.5" r="1.5"></circle>
                    <circle id="Oval" fill="#EDEDF4" cx="121.5" cy="8.5" r="1.5"></circle>
                    <circle id="Oval" fill="#7FF1C0" cx="125.5" cy="8.5" r="1.5"></circle>
                    <g id="Rectangle-Copy-3">
                        <use fill="black" fill-opacity="1" filter="url(#filter-36)" xlink:href="#path-35"></use>
                        <use fill="#FFFFFF" fill-rule="evenodd" xlink:href="#path-35"></use>
                    </g>
                    <rect id="Rectangle" fill="url(#linearGradient-37)" x="133" y="30" width="5" height="5"></rect>
                    <rect id="Rectangle" fill="url(#linearGradient-37)" x="143" y="30" width="5" height="5"></rect>
                    <rect id="Rectangle" fill="url(#linearGradient-37)" x="133" y="40" width="5" height="5"></rect>
                    <rect id="Rectangle" fill="url(#linearGradient-37)" x="143" y="40" width="5" height="5"></rect>
                    <rect id="Rectangle" fill="url(#linearGradient-37)" x="133" y="50" width="5" height="5"></rect>
                    <rect id="Rectangle" fill="url(#linearGradient-37)" x="143" y="50" width="5" height="5"></rect>
                    <rect id="Rectangle" fill="#CFDCFF" x="120" y="26" width="9" height="39"></rect>
                    <g id="Rectangle">
                        <use fill="black" fill-opacity="1" filter="url(#filter-39)" xlink:href="#path-38"></use>
                        <use fill="#FFFFFF" fill-rule="evenodd" xlink:href="#path-38"></use>
                    </g>
                    <rect id="Rectangle" fill="url(#linearGradient-40)" x="147" y="19" width="15" height="36"></rect>
                    <rect id="Rectangle-Copy-4" fill="url(#linearGradient-41)" x="162" y="19" width="34" height="3"></rect>
                    <rect id="Rectangle" fill="#E6E8EF" x="149" y="24" width="12" height="1"></rect>
                    <rect id="Rectangle" fill="#E6E8EF" x="149" y="28" width="12" height="1"></rect>
                    <rect id="Rectangle" fill="#E6E8EF" x="149" y="32" width="12" height="1"></rect>
                    <rect id="Rectangle" fill="#E6E8EF" x="149" y="36" width="12" height="1"></rect>
                    <rect id="Rectangle-Copy-2" fill="url(#linearGradient-42)" x="196" y="19" width="9" height="36"></rect>
                </g>
            </g>
        </g>
    </g>
</svg>