<?xml version="1.0" encoding="UTF-8"?>
<svg width="164px" height="304px" viewBox="0 0 164 304" version="1.1" xmlns="http://www.w3.org/2000/svg" xmlns:xlink="http://www.w3.org/1999/xlink">
    <!-- Generator: Sketch 53.2 (72643) - https://sketchapp.com -->
    <title>Desk2sur2</title>
    <desc>Created with Sketch.</desc>
    <defs>
        <linearGradient x1="0%" y1="6.47843587%" x2="100%" y2="92.1185964%" id="linearGradient-1">
            <stop stop-color="#947AFF" offset="0%"></stop>
            <stop stop-color="#B6FFEE" offset="100%"></stop>
        </linearGradient>
        <linearGradient x1="40.619992%" y1="159.829766%" x2="58.8241186%" y2="8.57166338%" id="linearGradient-2">
            <stop stop-color="#DCDCDC" offset="0%"></stop>
            <stop stop-color="#FFFFFF" offset="100%"></stop>
        </linearGradient>
        <linearGradient x1="0%" y1="-1.18716956%" x2="100%" y2="99.5370922%" id="linearGradient-3">
            <stop stop-color="#B7CBFF" offset="0%"></stop>
            <stop stop-color="#BDFFF0" offset="100%"></stop>
        </linearGradient>
        <linearGradient x1="0%" y1="-1.66549683%" x2="100%" y2="100%" id="linearGradient-4">
            <stop stop-color="#B7CBFF" offset="0%"></stop>
            <stop stop-color="#BDFFF0" offset="100%"></stop>
        </linearGradient>
        <linearGradient x1="50%" y1="0%" x2="50%" y2="100%" id="linearGradient-5">
            <stop stop-color="#FFE62F" offset="0%"></stop>
            <stop stop-color="#FDC815" offset="100%"></stop>
        </linearGradient>
        <linearGradient x1="100%" y1="100%" x2="0%" y2="0%" id="linearGradient-6">
            <stop stop-color="#FFEF79" offset="0%"></stop>
            <stop stop-color="#FDC815" offset="100%"></stop>
        </linearGradient>
        <linearGradient x1="47.6822543%" y1="56.4198939%" x2="57.2116635%" y2="20.197674%" id="linearGradient-7">
            <stop stop-color="#DCDCDC" offset="0%"></stop>
            <stop stop-color="#FFFFFF" offset="100%"></stop>
        </linearGradient>
        <linearGradient x1="56.9045421%" y1="15.221568%" x2="56.9045421%" y2="86.7472356%" id="linearGradient-8">
            <stop stop-color="#CF9E9E" offset="0%"></stop>
            <stop stop-color="#A26565" offset="100%"></stop>
        </linearGradient>
    </defs>
    <g id="Page-1" stroke="none" stroke-width="1" fill="none" fill-rule="evenodd">
        <g id="Créer-un-collectif" transform="translate(0.000000, -1247.000000)">
            <g id="Desk2sur2" transform="translate(-17.000000, 1247.000000)">
                <g id="Group-2" transform="translate(91.000000, 177.000000)" fill-rule="nonzero">
                    <path d="M66,77.6393602 L53.3042204,82.6627242 L34.7409144,90 C34.0381008,88.6815317 33.0064478,86.8488609 31.7297773,84.726127 C27.3323564,77.2767814 20.052755,65.6874455 13.5791325,55.5022782 C6.2866354,43.9986428 0,34.3276781 0,34.3276781 L4.55216882,33.0092099 L41.6852286,22 L66,77.6393602 Z" id="Path" fill="#E6ECF8"></path>
                    <path d="M66,78.0093549 L53.1901364,82.9717236 C46.0331869,84.4623971 38.7303644,85.1352975 31.4218258,84.9775105 C26.9848898,77.6186172 19.6398741,66.1700028 13.1080797,56.1085072 L4,33.8755325 L41.4667366,23 L66,78.0093549 Z" id="Path" fill="#000000" opacity="0.1"></path>
                    <path d="M76,74.4773082 C76,74.4773082 56.1809955,86.2792286 26.5885015,83.6058654 L3,25.7112517 L14.3084908,23.7551323 L53.3894952,17 L75.5531009,73.3492794 L76,74.4773082 Z" id="Path" fill="url(#linearGradient-1)"></path>
                    <path d="M76,73.8579633 C70.7660545,74.1457207 65.5173081,73.9960743 60.3081155,73.4105737 C54.3514972,72.7065929 48.3620781,71.265735 43.2517194,68.607714 C39.2235315,66.5989514 35.4743668,64.0708474 32.0994604,61.08762 C23.774627,53.5806846 18.6249074,42.8367533 14,23.8161132 L53.5839594,17 L76,73.8579633 Z" id="Path" fill="#000000" opacity="0.1"></path>
                    <path d="M90,69.3302433 C90,69.3302433 75.4567534,72.1856261 60.6750929,70.4284674 C54.8242875,69.7372323 48.9412639,68.316001 43.9216853,65.7125638 C39.9673011,63.7362973 36.2852181,61.2542895 32.9675341,58.3286216 C22.8510533,49.200441 17.5028501,35.2142337 12,6.96403301 C12,6.96403301 36.1571252,12.7781608 60.0371747,0 C60.0049566,0.0258405678 68.0594796,50.4149477 90,69.3302433 Z" id="Path" fill="url(#linearGradient-2)"></path>
                    <path d="M60,71 C54.0874419,70.2900848 48.1423256,68.830446 43.0697674,66.1566532 C39.0736465,64.1269797 35.3527008,61.5778978 32,58.5731662 C40.7060465,57.8499816 41.9562791,53 41.9562791,53 C48.3832558,63.4231478 60,71 60,71 Z" id="Path" fill="#666F8E" opacity="0.1"></path>
                    <path d="M24,17.6780822 C24,17.6780822 43.6709677,16.5 49.1612903,12 L50,14.8356164 C50,14.8356164 37,20.9246575 24,21 L24,17.6780822 Z" id="Path" fill="#6760D2" opacity="0.3"></path>
                    <path d="M24,30.5702648 C24,30.5702648 43.0886269,29.586558 57.5085584,23 L58,24.0570265 C58,24.0570265 46.5481172,30.3686354 24,32 L24,30.5702648 Z" id="Path" fill="#6760D2" opacity="0.3"></path>
                    <path d="M25,35.5754076 C25,35.5754076 44.0950932,34.5849185 58.5150247,28 L59,29.0516304 C59,29.0516304 47.5545835,35.3675272 25,37 L25,35.5754076 Z" id="Path" fill="#6760D2" opacity="0.3"></path>
                    <path d="M27,41.5702648 C27,41.5702648 46.0886269,40.586558 60.5085584,34 L61,35.0570265 C61,35.0570265 49.5481172,41.3686354 27,43 L27,41.5702648 Z" id="Path" fill="#6760D2" opacity="0.3"></path>
                    <path d="M28,46.5754076 C28,46.5754076 47.0950932,45.5849185 61.5150247,39 L62,40.0516304 C62,40.0516304 50.5545835,46.3675272 28,48 L28,46.5754076 Z" id="Path" fill="#6760D2" opacity="0.3"></path>
                    <path d="M30,51.5702648 C30,51.5702648 49.0886269,50.586558 63.5085584,44 L64,45.0570265 C64,45.0570265 52.5481172,51.3686354 30,53 L30,51.5702648 Z" id="Path" fill="#6760D2" opacity="0.3"></path>
                </g>
                <path d="M136.454257,114.184316 C136.454257,119.253788 132.320231,123.368632 127.227128,123.368632 C122.134026,123.368632 118,119.253788 118,114.184316 C118,109.114845 122.134026,105 127.227128,105 C132.320231,105 136.454257,109.114845 136.454257,114.184316" id="Path" fill="url(#linearGradient-3)"></path>
                <path d="M71,296.868632 C71,300.45644 68.0878083,303.368632 64.5,303.368632 C60.9121917,303.368632 58,300.45644 58,296.868632 C58,293.280824 60.9121917,290.368632 64.5,290.368632 C68.0878083,290.368632 71,293.280824 71,296.868632" id="Path-Copy" fill="url(#linearGradient-4)"></path>
                <path d="M68.4542567,4.20751515 C68.4542567,6.52993939 66.5603785,8.4150303 64.2271284,8.4150303 C61.8938782,8.4150303 60,6.52993939 60,4.20751515 C60,1.88509091 61.8938782,-1.13686838e-13 64.2271284,-1.13686838e-13 C66.5603785,-1.13686838e-13 68.4542567,1.88509091 68.4542567,4.20751515" id="Path" fill="url(#linearGradient-5)"></path>
                <g id="Group-3" transform="translate(0.000000, 81.000000)" fill-rule="nonzero">
                    <path d="M47.1644334,40.2484851 C40.399309,37.1221136 32.3803032,40.0695338 29.2508867,46.8326866 C26.1214702,53.5958394 29.0659857,61.6151772 35.8285994,64.7469749 C42.591213,67.8787725 50.6125813,64.9377863 53.7474235,58.1771462 C56.880597,51.4086181 53.9333901,43.3819504 47.1644334,40.2484851 L47.1644334,40.2484851 Z M37.9762228,60.0915181 C34.9043844,58.6706688 32.9913046,55.5391865 33.1293535,52.157774 C33.2674025,48.7763614 35.4293822,45.8112115 38.6068216,44.6454399 C41.7842609,43.4796684 45.351153,44.3429512 47.6436951,46.8326036 C49.9362371,49.322256 50.5027612,52.9477764 49.0790082,56.0180144 C48.1479567,58.0312847 46.4546258,59.5918574 44.3720681,60.3559275 C42.2895104,61.1199976 39.9885926,61.0248758 37.9762228,60.0915181 Z" id="Shape" fill="url(#linearGradient-6)"></path>
                    <path d="M29.9904245,5 L5.23108841,22.6372618 C1.97134064,24.9188019 0.0181435921,28.6693451 0,32.6820358 C0,39.0178359 2.8525375,48.5302631 16.5033514,57.1176285 C20.6159024,59.7042995 25.8416826,59.6190011 29.8697734,56.8994536 L54,40.5537874 L29.9904245,5 Z" id="Path" fill="url(#linearGradient-6)"></path>
                    <path d="M57.2555398,39.9496803 C53.3151478,43.2903377 43.9727432,38.3971032 36.3740262,29.0293066 C28.7753092,19.66151 25.8007833,9.37786733 29.7411753,6.04593222 C33.6815674,2.71399712 43.041067,7.60723166 50.639784,16.9663059 C51.1184433,17.5681476 51.5971026,18.1699893 52.0330245,18.771831 L52.5287789,19.4608961 C55.3485175,23.2072673 57.4165756,27.4843115 58.6145905,32.0472373 C58.7000653,32.4659098 58.7855402,32.8758599 58.8368252,33.2770877 C59.289842,36.2339621 58.8111827,38.6500511 57.2555398,39.9496803 Z" id="Path" fill="#FDC815"></path>
                    <ellipse id="Oval" fill="#F9FAFB" transform="translate(43.688423, 22.746594) rotate(-39.630000) translate(-43.688423, -22.746594) " cx="43.6884232" cy="22.7465944" rx="7.59407224" ry="17.7031594"></ellipse>
                    <path d="M55.3905145,35.1663396 C55.3308846,35.2794611 55.262736,35.383881 55.2031061,35.4883009 C55.0305344,35.7346908 54.8272101,35.9570115 54.5982878,36.1496266 C52.664573,37.7942393 49.1038119,36.9675821 45.2278638,34.4092957 L44.8274911,34.1308427 C43.5539165,33.2304036 42.3467197,32.235746 41.2156186,31.1548768 C39.9843301,29.9765461 38.8290648,28.7179718 37.7570803,27.3870604 C37.0159649,26.5168949 36.3429981,25.5684145 35.7211427,24.6547408 C34.8177238,23.3400479 34.006437,21.9617497 33.293351,20.5301565 C33.2617329,20.4798446 33.2332802,20.4275291 33.2081653,20.3735267 C30.6525951,15.2482521 30.2181482,10.6972867 32.4159386,8.84383426 C35.5933642,6.15502297 43.1322962,10.1055742 49.2571461,17.6586104 C49.9897429,18.5287759 50.6712283,19.4772563 51.2845651,20.3996317 C51.4208622,20.5823664 51.5486407,20.7738028 51.6679006,20.9652392 C55.4501445,26.6822263 56.9494124,32.3296002 55.3905145,35.1663396 Z" id="Path" fill="url(#linearGradient-7)" opacity="0.773618862"></path>
                    <path d="M68.8459888,5.90052384 C67.8758839,6.68043971 66.7947359,7.30730885 65.6392635,7.75984099 C60.9943042,9.71274884 58.3961141,14.7496438 59.468484,19.7226174 L59.5204849,19.9418765 C60.9331774,25.9671165 60.3178328,34.3866659 55.4817444,35.7899241 C55.1993529,35.8774916 54.9090132,35.9362533 54.6150619,35.9653314 C53.5872998,36.0670141 52.549941,35.9443935 51.5730063,35.6057465 C47.4822648,34.2989622 45.5928969,34.3252733 44.7348812,34.7287101 C43.4391412,33.821161 42.2109343,32.8186495 41.0601474,31.7292456 C39.8074295,30.5416107 38.6320579,29.2730985 37.5414164,27.931678 C36.7874026,27.0546416 36.1027234,26.098672 35.4700452,25.1777837 C34.5509031,23.8527099 33.7254966,22.4635285 33,21.0206312 C37.1340756,22.6870004 45.194223,25.6338427 47.9069392,24.388451 C49.1962639,23.6545929 50.2745448,22.5936563 51.0356631,21.3100533 L51.3043347,20.8890758 L51.4170034,20.7048981 C53.2321586,17.7353019 54.2949408,14.3582382 54.51106,10.8733202 C54.8317325,6.13732366 56.9031037,-2.0892777 67.6499669,0.489209297 C68.7870279,0.758055857 69.6716723,1.66180433 69.9265431,2.8149487 C70.1814138,3.96809307 69.7615262,5.16710265 68.8459888,5.90052384 L68.8459888,5.90052384 Z" id="Path" fill="url(#linearGradient-8)"></path>
                </g>
            </g>
        </g>
    </g>
</svg>