<?xml version="1.0" encoding="UTF-8"?>
<svg width="55px" height="80px" viewBox="0 0 55 80" version="1.1" xmlns="http://www.w3.org/2000/svg" xmlns:xlink="http://www.w3.org/1999/xlink">
    <!-- Generator: Sketch 53.2 (72643) - https://sketchapp.com -->
    <title>bill</title>
    <desc>Created with Sketch.</desc>
    <defs>
        <linearGradient x1="23.3990099%" y1="37.7183702%" x2="50%" y2="58.7280273%" id="linearGradient-1">
            <stop stop-color="#DCDCDC" offset="0%"></stop>
            <stop stop-color="#FFFFFF" offset="100%"></stop>
        </linearGradient>
        <linearGradient x1="100%" y1="100%" x2="0%" y2="0%" id="linearGradient-2">
            <stop stop-color="#FFEF79" offset="0%"></stop>
            <stop stop-color="#FDC815" offset="100%"></stop>
        </linearGradient>
        <linearGradient x1="-14.4884008%" y1="37.7183702%" x2="50%" y2="58.7280273%" id="linearGradient-3">
            <stop stop-color="#DCDCDC" offset="0%"></stop>
            <stop stop-color="#FFFFFF" offset="100%"></stop>
        </linearGradient>
        <linearGradient x1="0%" y1="45.6048449%" x2="100%" y2="54.2534722%" id="linearGradient-4">
            <stop stop-color="#947AFF" offset="0%"></stop>
            <stop stop-color="#B6FFEE" offset="100%"></stop>
        </linearGradient>
    </defs>
    <g id="Page-1" stroke="none" stroke-width="1" fill="none" fill-rule="evenodd">
        <g id="Qui-sommes-nous" transform="translate(-917.000000, -2004.000000)">
            <g id="bill" transform="translate(917.000000, 2004.000000)">
                <polygon id="Path" fill="url(#linearGradient-1)" points="36.0859018 0 32.0532102 5.51724138 28.0346311 0 24.0160515 5.51724138 19.9968002 0 15.9782209 5.51724138 11.9462015 0 7.92695017 5.51724138 3.90837082 0 0 5.36570586 0 79.8484645 3.90837082 74.4827586 7.92695017 80 11.9462015 74.4827586 15.9782209 80 19.9968002 74.4827586 24.0160515 80 28.0346311 74.4827586 32.0532102 80 36.0859018 74.4827586 40.1044811 80 44.040404 74.6208243 44.040404 0.13806569 40.1044811 5.51724138"></polygon>
                <path d="M50.5362202,46.1358192 C48.629582,44.4270297 46.2355878,43.3587018 43.6905066,43.0812575 C43.2679977,43.032454 42.8428147,43.0057124 42.4169632,43.0003641 C36.4650698,42.9549033 31.331453,47.1713887 30.2183561,53.0191129 C29.1059276,58.8661687 32.3322375,64.6731119 37.8850205,66.8177901 C43.4371349,68.9617997 49.7293084,66.8304924 52.8352836,61.7529268 C55.9412587,56.6753613 54.9739007,50.102939 50.5362202,46.1358192 Z" id="Path" fill="url(#linearGradient-2)"></path>
                <g id="euro" transform="translate(34.000000, 48.000000)" fill="url(#linearGradient-3)">
                    <path d="M12.7677385,12.8991065 C11.268011,14.7132491 9.24462559,15.4124256 7.34747215,15.0911823 C5.23368873,14.7321457 3.17988959,13.1447631 2.25844431,10.4425405 L0.903377723,10.4425405 C-0.288900196,10.4425405 -0.288900196,8.55287426 0.903377723,8.55287426 L1.87908589,8.55287426 C1.78868789,7.57018485 1.78868789,7.51991973 1.87908589,6.53723031 L0.903377723,6.53723031 C0.397425973,6.53723031 0,6.12156673 0,5.59239721 C0,5.06322768 0.397425973,4.6475641 0.903377723,4.6475641 L2.25844431,4.6475641 C3.17988959,1.92644476 5.26964316,0.414711799 7.34747215,0.0746348707 C9.29888848,-0.246671373 11.358409,0.471401785 12.7677385,2.19106102 C13.5445229,3.13589413 12.1894563,4.36411417 11.3946044,3.41928107 C10.3465657,2.13430805 8.79299696,1.6052645 7.34747215,1.98326073 C6.17302088,2.26658468 4.95050992,3.11693448 4.24581507,4.6475641 L8.25084987,4.6475641 C9.44312779,4.6475641 9.44312779,6.53723031 8.25084987,6.53723031 L3.68584134,6.53723031 C3.59544334,7.29315978 3.59544334,7.79694479 3.68584134,8.55287426 L8.25084987,8.55287426 C9.44312779,8.55287426 9.44312779,10.4425405 8.25084987,10.4425405 L4.24581507,10.4425405 C4.9504497,11.9542734 6.17302088,12.8235199 7.34747215,13.1069068 C8.79293673,13.4848401 10.3465055,12.9557965 11.3946044,11.6708865 C12.1894563,10.7260534 13.5445229,11.9542734 12.7677385,12.8991065 Z" id="Path"></path>
                </g>
                <polygon id="Path" fill="url(#linearGradient-4)" points="12.5252525 9.6969697 31.9191919 9.6969697 31.9191919 15.3535354 12.5252525 15.3535354"></polygon>
                <g id="Group" transform="translate(6.868687, 18.909091)" fill="#5CDABF">
                    <polygon id="Path" points="0 0.298368298 4.1322314 0.298368298 4.1322314 3.06449106 0 3.06449106"></polygon>
                    <polygon id="Path" points="6.88705234 0.298368298 30.3030303 0.298368298 30.3030303 3.06449106 6.88705234 3.06449106"></polygon>
                    <polygon id="Path" points="0 8.5967366 4.1322314 8.5967366 4.1322314 11.3628594 0 11.3628594"></polygon>
                    <polygon id="Path" points="0 16.8951049 4.1322314 16.8951049 4.1322314 19.6612277 0 19.6612277"></polygon>
                    <polygon id="Path" points="6.88705234 8.5967366 30.3030303 8.5967366 30.3030303 11.3628594 6.88705234 11.3628594"></polygon>
                    <polygon id="Path" points="6.88705234 16.8951049 30.3030303 16.8951049 30.3030303 19.6612277 6.88705234 19.6612277"></polygon>
                    <polygon id="Path" points="0 25.1934732 4.1322314 25.1934732 4.1322314 27.959596 0 27.959596"></polygon>
                    <polygon id="Path" points="6.88705234 25.1934732 20.661157 25.1934732 20.661157 27.959596 6.88705234 27.959596"></polygon>
                </g>
            </g>
        </g>
    </g>
</svg>